internals_number=8
threads_per_block=4
phisical_blocks_number=2
integration_intervals_per_thread=16
data_providing_blocks_number=8
p=-1.00
q=2.00
D=-1.00
BETA=2.00
GAMMA=28.00
#y = x^3
#a = 1 
#b = 0 
#c = 0