internals_number=4096
integration_intervals_per_thread=16
threads_per_block=4
phisical_blocks_number=1
data_providing_blocks_number=4
p=1.00
q=2.00
D=0.00
BETA=1.00
GAMMA=2.00
#y = 
# a = 1 
# b = 0 
# c = 0
# f = 1
